<?xml version="1.0" standalone="no"?>
<!DOCTYPE svg PUBLIC "-//W3C//DTD SVG 1.1//EN" "http://www.w3.org/Graphics/SVG/1.1/DTD/svg11.dtd">
<svg xmlns="http://www.w3.org/2000/svg">
<metadata>Generated by Fontastic.me</metadata>
<defs>
<font id="currency" horiz-adv-x="512">
<font-face font-family="currency" units-per-em="512" ascent="480" descent="-32"/>
<missing-glyph horiz-adv-x="512" />

<glyph unicode="&#97;" d="M87 341l0-56 48 0c0-5-1-9-1-14 0-5 0-10 0-15 0-4 0-8 0-12 0-4 1-9 1-14l-48 0 0-56 53 0c9-49 28-87 56-115 29-27 70-41 123-41 24 0 45 3 64 7 18 5 32 10 43 15l-17 64c-13-6-26-11-40-14-14-3-30-4-47-4-26 0-47 6-65 19-17 13-29 36-36 69l118 0 11 56-136 0c-1 5-1 10-1 14 0 4 0 8 0 12 0 5 0 10 0 14 0 5 0 10 1 15l147 0 10 56-150 0c7 27 18 48 34 63 16 15 39 23 69 23 15 0 28-2 40-4 11-2 23-6 33-10l17 65c-13 5-27 9-40 11-14 3-30 4-50 4-48 0-88-12-119-38-31-25-52-63-63-114z"/>
<glyph unicode="&#98;" d="M375 458c-30 20-72 30-127 30-17 0-35 0-54-2-20-1-38-3-54-7l0-187-47 0 0-42 47 0 0-42-47 0 0-42 47 0 0-143 69 0 0 143 142 0 0 42-142 0 0 32 35 0c28 0 52 2 74 7 22 4 40 12 55 22 15 10 26 23 34 39 8 15 12 34 12 56 0 43-15 74-44 94z m-55-146c-18-9-44-13-77-13l-34 0 0 128c12 1 26 2 44 2 13 0 25-1 37-3 11-2 21-6 30-10 8-5 15-12 20-20 4-8 7-19 7-31 0-26-9-43-27-53z"/>
<glyph unicode="&#99;" d="M95 338l0-53 151 0-25-14c-14-8-26-16-38-23-12-8-22-15-30-23l-58 0 0-54 29 0c-1-7-2-14-2-20 0-7 0-13 1-20 1-16 4-30 10-42 6-13 15-24 27-34 12-9 27-16 46-22 18-5 40-8 66-8 28 0 53 3 74 9 22 6 40 13 55 21l-22 62c-13-6-27-11-44-17-16-5-37-8-61-8-28 0-48 5-60 15-12 11-17 24-17 41 0 9 1 17 5 23l216 0 0 54-161 0c17 9 34 19 51 29 17 10 32 21 44 31l66 0 0 53-34 0c1 4 1 7 2 11 1 4 1 8 1 12 0 18-3 34-8 49-6 15-14 29-25 40-12 11-26 20-44 27-17 6-38 10-62 10-22 0-43-3-61-7-18-5-35-11-50-17l20-64c11 5 23 9 36 14 14 4 30 7 51 7 19 0 35-5 48-14 14-9 20-23 20-41 0-9-2-18-5-27z"/>
<glyph unicode="&#100;" d="M232 20l53 0 0 66c32 5 54 16 68 33 14 17 21 38 21 61 0 16-3 29-8 41-5 11-12 21-21 29-10 9-20 16-33 22-12 6-25 12-39 18-10 3-19 7-26 10-8 4-15 7-20 11-6 4-10 8-12 13-3 5-4 10-4 18 0 12 4 21 13 28 9 7 23 11 41 11 18 0 33-2 46-6 14-3 25-7 35-11l13 53c-8 3-18 6-31 10-12 3-27 5-43 7l0 57-53 0 0-59c-29-5-50-16-64-34-14-17-21-38-21-62 0-15 3-28 8-38 5-10 11-19 20-27 8-7 17-13 28-18 10-5 20-9 31-13 11-5 21-9 31-13 9-3 17-8 24-12 7-5 12-10 16-16 3-6 5-13 5-22 0-12-4-21-13-29-9-7-25-11-49-11-19 0-37 3-52 7-16 5-29 10-40 16l-17-51c7-4 19-9 34-14 15-5 35-9 59-10l0-65z"/>
<glyph unicode="&#101;" d="M138 493c-24-2-46-5-67-10l0-466 86 0 0 179 42 0c4 0 8 0 13 0 4 0 10 0 16 1 9-11 18-24 28-38 10-13 20-28 30-44 11-16 21-32 31-48 10-17 19-33 28-50l96 0c-8 18-18 36-28 54-10 19-21 37-33 54-11 18-22 34-33 49-11 15-21 28-30 38 64 23 95 67 95 131 0 51-18 89-54 114-36 25-88 38-157 38-18 0-39-1-63-2z m116-76c14-3 26-7 36-13 11-6 19-14 24-24 5-10 8-22 8-37 0-15-3-28-8-38-5-10-14-18-24-24-11-6-24-10-40-12-16-2-35-3-55-3l-38 0 0 153c16 1 32 2 51 2 16 0 32-2 46-4z"/>
<glyph unicode="&#102;" d="M337 33c23 10 42 22 57 39 15 16 26 36 33 58 8 22 11 47 11 73l0 289-84 0 0-281c0-21-3-39-7-53-5-15-12-27-20-37-9-9-19-16-31-20-12-5-26-7-40-7-15 0-28 2-40 7-12 4-22 11-31 20-8 10-15 22-20 37-4 14-7 32-7 53l0 281-84 0 0-289c0-26 3-51 10-73 7-22 18-42 33-58 15-17 34-29 57-39 22-9 49-13 81-13 32 0 59 4 82 13z"/>
<glyph unicode="&#103;" d="M425 489l-334 0 0-72 224 0c-12-14-25-29-38-47-14-18-28-36-42-56-15-20-29-40-44-61-14-21-28-42-42-63-13-20-26-40-38-60-12-20-22-38-31-54l0-53 353 0 0 72-251 0c17 28 36 59 58 91 21 32 44 63 66 94 23 30 44 58 65 84 22 26 40 47 54 63l0 62z"/>
</font></defs></svg>
